event_id,hit_id,particle_id,weight
2,1,1000,0.014
2,2,1000,0.013
2,3,1000,0.012
2,4,1000,0.011
2,5,1000,0.011
2,6,1000,0.011
2,7,1000,0.012
2,8,1000,0.013
2,9,0,0
2,10,0,0
2,11,1001,0.013
2,12,1001,0.012
2,13,1001,0.011
2,14,1001,0.011
2,15,1001,0.011
2,16,1001,0.012
2,17,1001,0.013
3,1,1000,0.014
3,2,1000,0.013
3,3,1000,0.012
3,4,1000,0.011
3,5,1000,0.011
3,6,1000,0.011
3,7,1000,0.012
3,8,1000,0.013
